999
dxfrw 0.6.3
  0
SECTION
  2
HEADER
  9
$ACADVER
  1
AC1021
  9
$DWGCODEPAGE
  3
ANSI_1252
  9
$INSBASE
 10
0
 20
0
 30
0
  9
$EXTMIN
 10
-33
 20
-0.02530677395946079
 30
0
  9
$EXTMAX
 10
44.09487219623841
 20
40
 30
0
  9
$LIMMIN
 10
0
 20
0
  9
$LIMMAX
 10
420
 20
297
  9
$ORTHOMODE
 70
    0
  9
$REGENMODE
 70
    1
  9
$FILLMODE
 70
    1
  9
$QTEXTMODE
 70
    0
  9
$MIRRTEXT
 70
    0
  9
$LTSCALE
 40
1
  9
$ATTMODE
 70
    0
  9
$TEXTSIZE
 40
2.5
  9
$TRACEWID
 40
15.68
  9
$TEXTSTYLE
  7
STANDARD
  9
$CLAYER
  8
Vertical4mm
  9
$CELTYPE
  6
BYLAYER
  9
$CECOLOR
 62
  256
  9
$CELTSCALE
 40
1
  9
$DISPSILH
 70
    0
  9
$DIMSCALE
 40
1
  9
$DIMASZ
 40
2.5
  9
$DIMEXO
 40
0.625
  9
$DIMDLI
 40
3.75
  9
$DIMRND
 40
0
  9
$DIMDLE
 40
0
  9
$DIMEXE
 40
1.25
  9
$DIMTP
 40
0
  9
$DIMTM
 40
0
  9
$DIMTXT
 40
2.5
  9
$DIMCEN
 40
2.5
  9
$DIMTSZ
 40
0
  9
$DIMTOL
 70
    0
  9
$DIMLIM
 70
    0
  9
$DIMTIH
 70
    0
  9
$DIMTOH
 70
    0
  9
$DIMSE1
 70
    0
  9
$DIMSE2
 70
    0
  9
$DIMTAD
 70
    1
  9
$DIMZIN
 70
    8
  9
$DIMBLK
  1

  9
$DIMASO
 70
    1
  9
$DIMSHO
 70
    1
  9
$DIMPOST
  1

  9
$DIMAPOST
  1

  9
$DIMALT
 70
    0
  9
$DIMALTD
 70
    3
  9
$DIMALTF
 40
0.03937
  9
$DIMLFAC
 40
1
  9
$DIMTOFL
 70
    1
  9
$DIMTVP
 40
0
  9
$DIMTIX
 70
    0
  9
$DIMSOXD
 70
    0
  9
$DIMSAH
 70
    0
  9
$DIMBLK1
  1

  9
$DIMBLK2
  1

  9
$DIMSTYLE
  2
STANDARD
  9
$DIMCLRD
 70
    0
  9
$DIMCLRE
 70
    0
  9
$DIMCLRT
 70
    0
  9
$DIMTFAC
 40
1
  9
$DIMGAP
 40
0.625
  9
$DIMJUST
 70
    0
  9
$DIMSD1
 70
    0
  9
$DIMSD2
 70
    0
  9
$DIMTOLJ
 70
    0
  9
$DIMTZIN
 70
    8
  9
$DIMALTZ
 70
    0
  9
$DIMALTTZ
 70
    0
  9
$DIMUPT
 70
    0
  9
$DIMDEC
 70
    2
  9
$DIMTDEC
 70
    2
  9
$DIMALTU
 70
    2
  9
$DIMALTTD
 70
    3
  9
$DIMTXSTY
  7
STANDARD
  9
$DIMAUNIT
 70
    0
  9
$DIMADEC
 70
    0
  9
$DIMALTRND
 40
0
  9
$DIMAZIN
 70
    0
  9
$DIMDSEP
 70
   44
  9
$DIMATFIT
 70
    3
  9
$DIMFRAC
 70
    0
  9
$DIMLDRBLK
  1
STANDARD
  9
$DIMLUNIT
 70
    2
  9
$DIMLWD
 70
   -2
  9
$DIMLWE
 70
   -2
  9
$DIMTMOVE
 70
    0
  9
$DIMFXL
 40
1
  9
$DIMFXLON
 70
    0
  9
$DIMJOGANG
 40
0.7854
  9
$DIMTFILL
 70
    0
  9
$DIMTFILLCLR
 70
    0
  9
$DIMARCSYM
 70
    0
  9
$DIMLTYPE
  6

  9
$DIMLTEX1
  6

  9
$DIMLTEX2
  6

  9
$LUNITS
 70
    2
  9
$LUPREC
 70
    4
  9
$SKETCHINC
 40
1
  9
$FILLETRAD
 40
0
  9
$AUNITS
 70
    0
  9
$AUPREC
 70
    2
  9
$MENU
  1
.
  9
$ELEVATION
 40
0
  9
$PELEVATION
 40
0
  9
$THICKNESS
 40
0
  9
$LIMCHECK
 70
    0
  9
$CHAMFERA
 40
0
  9
$CHAMFERB
 40
0
  9
$CHAMFERC
 40
0
  9
$CHAMFERD
 40
0
  9
$SKPOLY
 70
    0
  9
$USRTIMER
 70
    1
  9
$ANGBASE
 50
0
  9
$ANGDIR
 70
    0
  9
$PDMODE
 70
   34
  9
$PDSIZE
 40
0
  9
$PLINEWID
 40
0
  9
$SPLFRAME
 70
    0
  9
$SPLINETYPE
 70
    2
  9
$SPLINESEGS
 70
    8
  9
$HANDSEED
  5
20000
  9
$SURFTAB1
 70
    6
  9
$SURFTAB2
 70
    6
  9
$SURFTYPE
 70
    6
  9
$SURFU
 70
    6
  9
$SURFV
 70
    6
  9
$UCSBASE
  2

  9
$UCSNAME
  2

  9
$UCSORG
 10
0
 20
0
 30
0
  9
$UCSXDIR
 10
1
 20
0
 30
0
  9
$UCSYDIR
 10
0
 20
1
 30
0
  9
$UCSORTHOREF
  2

  9
$UCSORTHOVIEW
 70
    0
  9
$UCSORGTOP
 10
0
 20
0
 30
0
  9
$UCSORGBOTTOM
 10
0
 20
0
 30
0
  9
$UCSORGLEFT
 10
0
 20
0
 30
0
  9
$UCSORGRIGHT
 10
0
 20
0
 30
0
  9
$UCSORGFRONT
 10
0
 20
0
 30
0
  9
$UCSORGBACK
 10
0
 20
0
 30
0
  9
$PUCSBASE
  2

  9
$PUCSNAME
  2

  9
$PUCSORG
 10
0
 20
0
 30
0
  9
$PUCSXDIR
 10
1
 20
0
 30
0
  9
$PUCSYDIR
 10
0
 20
1
 30
0
  9
$PUCSORTHOREF
  2

  9
$PUCSORTHOVIEW
 70
    0
  9
$PUCSORGTOP
 10
0
 20
0
 30
0
  9
$PUCSORGBOTTOM
 10
0
 20
0
 30
0
  9
$PUCSORGLEFT
 10
0
 20
0
 30
0
  9
$PUCSORGRIGHT
 10
0
 20
0
 30
0
  9
$PUCSORGFRONT
 10
0
 20
0
 30
0
  9
$PUCSORGBACK
 10
0
 20
0
 30
0
  9
$USERI1
 70
    0
  9
$USERI2
 70
    0
  9
$USERI3
 70
    0
  9
$USERI4
 70
    0
  9
$USERI5
 70
    0
  9
$USERR1
 40
0
  9
$USERR2
 40
0
  9
$USERR3
 40
0
  9
$USERR4
 40
0
  9
$USERR5
 40
0
  9
$WORLDVIEW
 70
    1
  9
$SHADEDGE
 70
    3
  9
$SHADEDIF
 70
   70
  9
$TILEMODE
 70
    1
  9
$MAXACTVP
 70
   64
  9
$PINSBASE
 10
0
 20
0
 30
0
  9
$PLIMCHECK
 70
    0
  9
$PEXTMIN
 10
0
 20
0
 30
0
  9
$PEXTMAX
 10
0
 20
0
 30
0
  9
$SNAPSTYLE
 70
    0
  9
$PLIMMIN
 10
0
 20
0
  9
$PLIMMAX
 10
420
 20
297
  9
$UNITMODE
 70
    0
  9
$VISRETAIN
 70
    1
  9
$PLINEGEN
 70
    0
  9
$PSLTSCALE
 70
    1
  9
$TREEDEPTH
 70
 3020
  9
$CMLSTYLE
  2
Standard
  9
$CMLJUST
 70
    0
  9
$CMLSCALE
 40
20
  9
$PROXYGRAPHICS
 70
    1
  9
$MEASUREMENT
 70
    1
  9
$CELWEIGHT
370
   -1
  9
$ENDCAPS
280
    0
  9
$JOINSTYLE
280
    0
  9
$LWDISPLAY
290
    0
  9
$INSUNITS
 70
    4
  9
$HYPERLINKBASE
  1

  9
$STYLESHEET
  1

  9
$XEDIT
290
    1
  9
$CEPSNTYPE
380
    0
  9
$PSTYLEMODE
290
    1
  9
$EXTNAMES
290
    1
  9
$PSVPSCALE
 40
1
  9
$OLESTARTUP
290
    0
  9
$SORTENTS
280
  127
  9
$INDEXCTL
280
    0
  9
$HIDETEXT
280
    1
  9
$XCLIPFRAME
290
    0
  9
$HALOGAP
280
    0
  9
$OBSCOLOR
 70
  257
  9
$OBSLTYPE
280
    0
  9
$INTERSECTIONDISPLAY
280
    0
  9
$INTERSECTIONCOLOR
 70
  257
  9
$DIMASSOC
280
    1
  9
$PROJECTNAME
  1

  9
$CAMERADISPLAY
290
    0
  9
$LENSLENGTH
 40
50
  9
$CAMERAHEIGHT
 40
0
  9
$STEPSPERSEC
 40
2
  9
$STEPSIZE
 40
50
  9
$3DDWFPREC
 40
2
  9
$PSOLWIDTH
 40
5
  9
$PSOLHEIGHT
 40
80
  9
$LOFTANG1
 40
1.570796326794897
  9
$LOFTANG2
 40
1.570796326794897
  9
$LOFTMAG1
 40
0
  9
$LOFTMAG2
 40
0
  9
$LOFTPARAM
 70
    7
  9
$LOFTNORMALS
280
    1
  9
$LATITUDE
 40
1
  9
$LONGITUDE
 40
1
  9
$NORTHDIRECTION
 40
0
  9
$TIMEZONE
 70
-8000
  9
$LIGHTGLYPHDISPLAY
280
    1
  9
$TILEMODELIGHTSYNCH
280
    1
  9
$SOLIDHIST
280
    1
  9
$SHOWHIST
280
    1
  9
$DWFFRAME
280
    2
  9
$DGNFRAME
280
    0
  9
$REALWORLDSCALE
290
    1
  9
$INTERFERECOLOR
 62
    1
  9
$CSHADOW
280
    0
  9
$SHADOWPLANELOCATION
 40
0
  0
ENDSEC
  0
SECTION
  2
CLASSES
  0
ENDSEC
  0
SECTION
  2
TABLES
  0
TABLE
  2
VPORT
  5
8
330
0
100
AcDbSymbolTable
 70
    1
  0
VPORT
  5
31
330
2
100
AcDbSymbolTableRecord
100
AcDbViewportTableRecord
  2
*ACTIVE
 70
    0
 10
0
 20
0
 11
1
 21
1
 12
33.53298192080989
 22
24.72993810851837
 13
0
 23
0
 14
10
 24
10
 15
10
 25
10
 16
0
 26
0
 36
1
 17
0
 27
0
 37
0
 40
86.50389873350048
 41
1.734117647058824
 42
50
 43
0
 44
0
 50
0
 51
0
 71
    0
 72
  100
 73
    1
 74
    3
 75
    0
 76
    1
 77
    0
 78
    0
281
    0
 65
    1
110
0
120
0
130
0
111
1
121
0
131
0
112
0
122
1
132
0
 79
    0
146
0
348
10020
 60
    7
 61
    5
292
1
282
    1
141
0
142
0
 63
  250
421
3358443
  0
ENDTAB
  0
TABLE
  2
LTYPE
  5
5
330
0
100
AcDbSymbolTable
 70
    4
  0
LTYPE
  5
14
330
5
100
AcDbSymbolTableRecord
100
AcDbLinetypeTableRecord
  2
ByBlock
 70
    0
  3

 72
   65
 73
    0
 40
0
  0
LTYPE
  5
15
330
5
100
AcDbSymbolTableRecord
100
AcDbLinetypeTableRecord
  2
ByLayer
 70
    0
  3

 72
   65
 73
    0
 40
0
  0
LTYPE
  5
16
330
5
100
AcDbSymbolTableRecord
100
AcDbLinetypeTableRecord
  2
Continuous
 70
    0
  3
Solid line
 72
   65
 73
    0
 40
0
  0
LTYPE
  5
32
330
5
100
AcDbSymbolTableRecord
100
AcDbLinetypeTableRecord
  2
DOT
 70
    0
  3
Dot . . . . . . . . . . . . . . . . . . . . . .
 72
   65
 73
    2
 40
6.35
 49
0
 74
    0
 49
-6.35
 74
    0
  0
LTYPE
  5
33
330
5
100
AcDbSymbolTableRecord
100
AcDbLinetypeTableRecord
  2
DOTTINY
 70
    0
  3
Dot (.15x) .....................................
 72
   65
 73
    2
 40
0.9525
 49
0
 74
    0
 49
-0.9525
 74
    0
  0
LTYPE
  5
34
330
5
100
AcDbSymbolTableRecord
100
AcDbLinetypeTableRecord
  2
DOT2
 70
    0
  3
Dot (.5x) .....................................
 72
   65
 73
    2
 40
3.175
 49
0
 74
    0
 49
-3.175
 74
    0
  0
LTYPE
  5
35
330
5
100
AcDbSymbolTableRecord
100
AcDbLinetypeTableRecord
  2
DOTX2
 70
    0
  3
Dot (2x) .  .  .  .  .  .  .  .  .  .  .  .  .
 72
   65
 73
    2
 40
12.7
 49
0
 74
    0
 49
-12.7
 74
    0
  0
LTYPE
  5
36
330
5
100
AcDbSymbolTableRecord
100
AcDbLinetypeTableRecord
  2
DASHED
 70
    0
  3
Dashed _ _ _ _ _ _ _ _ _ _ _ _ _ _ _ _ _
 72
   65
 73
    2
 40
19.05
 49
12.7
 74
    0
 49
-6.35
 74
    0
  0
LTYPE
  5
37
330
5
100
AcDbSymbolTableRecord
100
AcDbLinetypeTableRecord
  2
DASHEDTINY
 70
    0
  3
Dashed (.15x) _ _ _ _ _ _ _ _ _ _ _ _ _ _ _ _ _
 72
   65
 73
    2
 40
2.8575
 49
1.905
 74
    0
 49
-0.9525
 74
    0
  0
LTYPE
  5
38
330
5
100
AcDbSymbolTableRecord
100
AcDbLinetypeTableRecord
  2
DASHED2
 70
    0
  3
Dashed (.5x) _ _ _ _ _ _ _ _ _ _ _ _ _ _ _ _ _
 72
   65
 73
    2
 40
9.524999999999999
 49
6.35
 74
    0
 49
-3.175
 74
    0
  0
LTYPE
  5
39
330
5
100
AcDbSymbolTableRecord
100
AcDbLinetypeTableRecord
  2
DASHEDX2
 70
    0
  3
Dashed (2x) ____  ____  ____  ____  ____  ___
 72
   65
 73
    2
 40
38.09999999999999
 49
25.4
 74
    0
 49
-12.7
 74
    0
  0
LTYPE
  5
3A
330
5
100
AcDbSymbolTableRecord
100
AcDbLinetypeTableRecord
  2
DASHDOT
 70
    0
  3
Dash dot __ . __ . __ . __ . __ . __ . __ . __
 72
   65
 73
    4
 40
25.4
 49
12.7
 74
    0
 49
-6.35
 74
    0
 49
0
 74
    0
 49
-6.35
 74
    0
  0
LTYPE
  5
3B
330
5
100
AcDbSymbolTableRecord
100
AcDbLinetypeTableRecord
  2
DASHDOTTINY
 70
    0
  3
Dash dot (.15x) _._._._._._._._._._._._._._._.
 72
   65
 73
    4
 40
3.81
 49
1.905
 74
    0
 49
-0.9525
 74
    0
 49
0
 74
    0
 49
-0.9525
 74
    0
  0
LTYPE
  5
3C
330
5
100
AcDbSymbolTableRecord
100
AcDbLinetypeTableRecord
  2
DASHDOT2
 70
    0
  3
Dash dot (.5x) _._._._._._._._._._._._._._._.
 72
   65
 73
    4
 40
12.7
 49
6.35
 74
    0
 49
-3.175
 74
    0
 49
0
 74
    0
 49
-3.175
 74
    0
  0
LTYPE
  5
3D
330
5
100
AcDbSymbolTableRecord
100
AcDbLinetypeTableRecord
  2
DASHDOTX2
 70
    0
  3
Dash dot (2x) ____  .  ____  .  ____  .  ___
 72
   65
 73
    4
 40
50.8
 49
25.4
 74
    0
 49
-12.7
 74
    0
 49
0
 74
    0
 49
-12.7
 74
    0
  0
LTYPE
  5
3E
330
5
100
AcDbSymbolTableRecord
100
AcDbLinetypeTableRecord
  2
DIVIDE
 70
    0
  3
Divide ____ . . ____ . . ____ . . ____ . . ____
 72
   65
 73
    6
 40
31.75
 49
12.7
 74
    0
 49
-6.35
 74
    0
 49
0
 74
    0
 49
-6.35
 74
    0
 49
0
 74
    0
 49
-6.35
 74
    0
  0
LTYPE
  5
3F
330
5
100
AcDbSymbolTableRecord
100
AcDbLinetypeTableRecord
  2
DIVIDETINY
 70
    0
  3
Divide (.15x) __..__..__..__..__..__..__..__.._
 72
   65
 73
    6
 40
4.7625
 49
1.905
 74
    0
 49
-0.9525
 74
    0
 49
0
 74
    0
 49
-0.9525
 74
    0
 49
0
 74
    0
 49
-0.9525
 74
    0
  0
LTYPE
  5
40
330
5
100
AcDbSymbolTableRecord
100
AcDbLinetypeTableRecord
  2
DIVIDE2
 70
    0
  3
Divide (.5x) __..__..__..__..__..__..__..__.._
 72
   65
 73
    6
 40
15.875
 49
6.35
 74
    0
 49
-3.175
 74
    0
 49
0
 74
    0
 49
-3.175
 74
    0
 49
0
 74
    0
 49
-3.175
 74
    0
  0
LTYPE
  5
41
330
5
100
AcDbSymbolTableRecord
100
AcDbLinetypeTableRecord
  2
DIVIDEX2
 70
    0
  3
Divide (2x) ________  .  .  ________  .  .  _
 72
   65
 73
    6
 40
63.5
 49
25.4
 74
    0
 49
-12.7
 74
    0
 49
0
 74
    0
 49
-12.7
 74
    0
 49
0
 74
    0
 49
-12.7
 74
    0
  0
LTYPE
  5
42
330
5
100
AcDbSymbolTableRecord
100
AcDbLinetypeTableRecord
  2
BORDER
 70
    0
  3
Border __ __ . __ __ . __ __ . __ __ . __ __ .
 72
   65
 73
    6
 40
44.45
 49
12.7
 74
    0
 49
-6.35
 74
    0
 49
12.7
 74
    0
 49
-6.35
 74
    0
 49
0
 74
    0
 49
-6.35
 74
    0
  0
LTYPE
  5
43
330
5
100
AcDbSymbolTableRecord
100
AcDbLinetypeTableRecord
  2
BORDERTINY
 70
    0
  3
Border (.15x) __.__.__.__.__.__.__.__.__.__.__.
 72
   65
 73
    6
 40
6.6675
 49
1.905
 74
    0
 49
-0.9525
 74
    0
 49
1.905
 74
    0
 49
-0.9525
 74
    0
 49
0
 74
    0
 49
-0.9525
 74
    0
  0
LTYPE
  5
44
330
5
100
AcDbSymbolTableRecord
100
AcDbLinetypeTableRecord
  2
BORDER2
 70
    0
  3
Border (.5x) __.__.__.__.__.__.__.__.__.__.__.
 72
   65
 73
    6
 40
22.225
 49
6.35
 74
    0
 49
-3.175
 74
    0
 49
6.35
 74
    0
 49
-3.175
 74
    0
 49
0
 74
    0
 49
-3.175
 74
    0
  0
LTYPE
  5
45
330
5
100
AcDbSymbolTableRecord
100
AcDbLinetypeTableRecord
  2
BORDERX2
 70
    0
  3
Border (2x) ____  ____  .  ____  ____  .  ___
 72
   65
 73
    6
 40
88.89999999999999
 49
25.4
 74
    0
 49
-12.7
 74
    0
 49
25.4
 74
    0
 49
-12.7
 74
    0
 49
0
 74
    0
 49
-12.7
 74
    0
  0
LTYPE
  5
46
330
5
100
AcDbSymbolTableRecord
100
AcDbLinetypeTableRecord
  2
CENTER
 70
    0
  3
Center ____ _ ____ _ ____ _ ____ _ ____ _ ____
 72
   65
 73
    4
 40
50.8
 49
31.75
 74
    0
 49
-6.35
 74
    0
 49
6.35
 74
    0
 49
-6.35
 74
    0
  0
LTYPE
  5
47
330
5
100
AcDbSymbolTableRecord
100
AcDbLinetypeTableRecord
  2
CENTERTINY
 70
    0
  3
Center (.15x) ___ _ ___ _ ___ _ ___ _ ___ _ ___
 72
   65
 73
    4
 40
7.619999999999999
 49
4.7625
 74
    0
 49
-0.9525
 74
    0
 49
0.9525
 74
    0
 49
-0.9525
 74
    0
  0
LTYPE
  5
48
330
5
100
AcDbSymbolTableRecord
100
AcDbLinetypeTableRecord
  2
CENTER2
 70
    0
  3
Center (.5x) ___ _ ___ _ ___ _ ___ _ ___ _ ___
 72
   65
 73
    4
 40
28.575
 49
19.05
 74
    0
 49
-3.175
 74
    0
 49
3.175
 74
    0
 49
-3.175
 74
    0
  0
LTYPE
  5
49
330
5
100
AcDbSymbolTableRecord
100
AcDbLinetypeTableRecord
  2
CENTERX2
 70
    0
  3
Center (2x) ________  __  ________  __  _____
 72
   65
 73
    4
 40
101.6
 49
63.5
 74
    0
 49
-12.7
 74
    0
 49
12.7
 74
    0
 49
-12.7
 74
    0
  0
ENDTAB
  0
TABLE
  2
LAYER
  5
2
330
0
100
AcDbSymbolTable
 70
    1
  0
LAYER
  5
10
330
2
100
AcDbSymbolTableRecord
100
AcDbLayerTableRecord
  2
0
 70
    1
 62
    7
  6
CONTINUOUS
370
    0
390
F
  0
LAYER
  5
4A
330
2
100
AcDbSymbolTableRecord
100
AcDbLayerTableRecord
  2
GearHoles
 70
    0
 62
  136
420
32896
  6
CONTINUOUS
370
    0
390
F
  0
LAYER
  5
4B
330
2
100
AcDbSymbolTableRecord
100
AcDbLayerTableRecord
  2
LandingGear
 70
    1
 62
    6
  6
CONTINUOUS
370
    0
390
F
  0
LAYER
  5
4C
330
2
100
AcDbSymbolTableRecord
100
AcDbLayerTableRecord
  2
Plate
 70
    0
 62
    7
  6
CONTINUOUS
370
    0
390
F
  0
LAYER
  5
4D
330
2
100
AcDbSymbolTableRecord
100
AcDbLayerTableRecord
  2
Vertical15mm
 70
    0
 62
    4
  6
CONTINUOUS
370
    0
390
F
  0
LAYER
  5
4E
330
2
100
AcDbSymbolTableRecord
100
AcDbLayerTableRecord
  2
Vertical4mm
 70
    0
 62
    5
  6
CONTINUOUS
370
    0
390
F
  0
LAYER
  5
4F
330
2
100
AcDbSymbolTableRecord
100
AcDbLayerTableRecord
  2
Vertical5mm
 70
    0
 62
    3
  6
CONTINUOUS
370
    0
390
F
  0
LAYER
  5
50
330
2
100
AcDbSymbolTableRecord
100
AcDbLayerTableRecord
  2
guides
 70
    1
 62
    2
  6
CONTINUOUS
370
    0
390
F
1001
LibreCad
1070
    1
  0
LAYER
  5
51
330
2
100
AcDbSymbolTableRecord
100
AcDbLayerTableRecord
  2
measures
 70
    0
 62
    1
  6
CONTINUOUS
370
    0
390
F
  0
ENDTAB
  0
TABLE
  2
STYLE
  5
3
330
0
100
AcDbSymbolTable
 70
    3
  0
STYLE
  5
52
330
2
100
AcDbSymbolTableRecord
100
AcDbTextStyleTableRecord
  2
Standard
 70
    0
 40
0
 41
1
 50
0
 71
    0
 42
1
  3
txt
  4

  0
ENDTAB
  0
TABLE
  2
VIEW
  5
6
330
0
100
AcDbSymbolTable
 70
    0
  0
ENDTAB
  0
TABLE
  2
UCS
  5
7
330
0
100
AcDbSymbolTable
 70
    0
  0
ENDTAB
  0
TABLE
  2
APPID
  5
9
330
0
100
AcDbSymbolTable
 70
    1
  0
APPID
  5
12
330
9
100
AcDbSymbolTableRecord
100
AcDbRegAppTableRecord
  2
ACAD
 70
    0
  0
APPID
  5
53
330
9
100
AcDbSymbolTableRecord
100
AcDbRegAppTableRecord
  2
LibreCad
 70
    0
  0
ENDTAB
  0
TABLE
  2
DIMSTYLE
  5
A
330
0
100
AcDbSymbolTable
 70
    1
100
AcDbDimStyleTable
 71
    1
  0
DIMSTYLE
105
54
330
A
100
AcDbSymbolTableRecord
100
AcDbDimStyleTableRecord
  2
Standard
 70
    0
 40
1
 41
2.5
 42
0.625
 43
0.38
 44
1.25
 45
0
 46
0
 47
0
 48
0
 49
1
140
2.5
141
0.09
142
0
143
25.4
144
1
145
0
146
1
147
0.625
148
0
 71
    0
 72
    0
 73
    0
 74
    1
 75
    0
 76
    0
 77
    0
 78
    1
 79
    0
170
    0
171
    2
172
    0
173
    0
174
    0
175
    0
176
    0
177
    0
178
    0
179
    0
271
    2
272
    4
273
    2
274
    2
275
    0
276
    0
277
    2
278
    0
279
    0
280
    0
281
    0
282
    0
283
    1
284
    0
285
    0
286
    0
288
    0
289
    3
340
standard
341

371
   -2
372
   -2
  0
ENDTAB
  0
TABLE
  2
BLOCK_RECORD
  5
1
330
0
100
AcDbSymbolTable
 70
    2
  0
BLOCK_RECORD
  5
1F
330
1
100
AcDbSymbolTableRecord
100
AcDbBlockTableRecord
  2
*Model_Space
 70
    0
280
    1
281
    0
  0
BLOCK_RECORD
  5
1E
330
1
100
AcDbSymbolTableRecord
100
AcDbBlockTableRecord
  2
*Paper_Space
 70
    0
280
    1
281
    0
  0
BLOCK_RECORD
  5
55
330
1
100
AcDbSymbolTableRecord
100
AcDbBlockTableRecord
  2
*D2
 70
    0
280
    1
281
    0
  0
BLOCK_RECORD
  5
58
330
1
100
AcDbSymbolTableRecord
100
AcDbBlockTableRecord
  2
*D3
 70
    0
280
    1
281
    0
  0
BLOCK_RECORD
  5
5B
330
1
100
AcDbSymbolTableRecord
100
AcDbBlockTableRecord
  2
*D1
 70
    0
280
    1
281
    0
  0
BLOCK_RECORD
  5
5E
330
1
100
AcDbSymbolTableRecord
100
AcDbBlockTableRecord
  2
*D5
 70
    0
280
    1
281
    0
  0
BLOCK_RECORD
  5
61
330
1
100
AcDbSymbolTableRecord
100
AcDbBlockTableRecord
  2
*D4
 70
    0
280
    1
281
    0
  0
ENDTAB
  0
ENDSEC
  0
SECTION
  2
BLOCKS
  0
BLOCK
  5
20
330
1F
100
AcDbEntity
  8
0
100
AcDbBlockBegin
  2
*Model_Space
 70
    0
 10
0
 20
0
 30
0
  3
*Model_Space
  1

  0
ENDBLK
  5
21
330
1F
100
AcDbEntity
  8
0
100
AcDbBlockEnd
  0
BLOCK
  5
1C
330
1B
100
AcDbEntity
  8
0
100
AcDbBlockBegin
  2
*Paper_Space
 70
    0
 10
0
 20
0
 30
0
  3
*Paper_Space
  1

  0
ENDBLK
  5
1D
330
1F
100
AcDbEntity
  8
0
100
AcDbBlockEnd
  0
BLOCK
  5
56
330
55
100
AcDbEntity
  8
0
100
AcDbBlockBegin
  2
*D2
 70
    1
 10
0
 20
0
  3
*D2
  1

  0
LINE
  5
64
100
AcDbEntity
  8
measures
  6
ByBlock
 62
    0
370
   -2
100
AcDbLine
 10
-4.723316816584163
 20
12.5
 11
-4.723316816584164
 21
2.5
  0
SOLID
  5
65
100
AcDbEntity
  8
measures
  6
ByBlock
 62
    0
370
   -2
100
AcDbTrace
 10
-4.723316816584163
 20
12.5
 30
0
 11
-4.307032158811323
 21
10
 31
0
 12
-5.139601474357004
 22
10
 32
0
 13
-5.139601474357004
 23
10
 33
0
  0
SOLID
  5
66
100
AcDbEntity
  8
measures
  6
ByBlock
 62
    0
370
   -2
100
AcDbTrace
 10
-4.723316816584164
 20
2.5
 30
0
 11
-5.139601474357004
 21
5
 31
0
 12
-4.307032158811324
 22
5
 32
0
 13
-4.307032158811324
 23
5
 33
0
  0
MTEXT
  5
67
100
AcDbEntity
  8
measures
  6
CONTINUOUS
 62
    0
370
   -2
100
AcDbMText
 10
-6.598316816584163
 20
18.68055555555556
 30
0
 40
2.5
 41
11.11111111111111
 71
    5
 72
    1
  1
10.0000
  7
standard
210
0
220
0
230
1
 50
90
 73
    2
 44
1
  0
LINE
  5
68
100
AcDbEntity
  8
measures
  6
ByBlock
 62
    0
370
   -2
100
AcDbLine
 10
-0.6249999999999992
 20
12.5
 11
-5.973316816584163
 21
12.5
  0
LINE
  5
69
100
AcDbEntity
  8
measures
  6
ByBlock
 62
    0
370
   -2
100
AcDbLine
 10
-0.6249999999999999
 20
2.5
 11
-5.973316816584164
 21
2.5
  0
ENDBLK
  5
57
330
55
100
AcDbEntity
  8
0
100
AcDbBlockEnd
  0
BLOCK
  5
59
330
58
100
AcDbEntity
  8
0
100
AcDbBlockBegin
  2
*D3
 70
    1
 10
0
 20
0
  3
*D3
  1

  0
LINE
  5
6A
100
AcDbEntity
  8
measures
  6
ByBlock
 62
    0
370
   -2
100
AcDbLine
 10
-19
 20
4
 11
-33
 21
4
  0
SOLID
  5
6B
100
AcDbEntity
  8
measures
  6
ByBlock
 62
    0
370
   -2
100
AcDbTrace
 10
-24
 20
4
 30
0
 11
-21.5
 21
4.41628465777284
 31
0
 12
-21.5
 22
3.583715342227159
 32
0
 13
-21.5
 23
3.583715342227159
 33
0
  0
SOLID
  5
6C
100
AcDbEntity
  8
measures
  6
ByBlock
 62
    0
370
   -2
100
AcDbTrace
 10
-28
 20
4
 30
0
 11
-30.5
 21
3.58371534222716
 31
0
 12
-30.5
 22
4.416284657772841
 32
0
 13
-30.5
 23
4.416284657772841
 33
0
  0
MTEXT
  5
6D
100
AcDbEntity
  8
measures
  6
CONTINUOUS
 62
    0
370
   -2
100
AcDbMText
 10
-18.375
 20
5.874999999999998
 30
0
 40
2.5
 41
10
 71
    5
 72
    1
  1
4.0000
  7
standard
210
0
220
0
230
1
 50
360
 73
    2
 44
1
  0
ENDBLK
  5
5A
330
58
100
AcDbEntity
  8
0
100
AcDbBlockEnd
  0
BLOCK
  5
5C
330
5B
100
AcDbEntity
  8
0
100
AcDbBlockBegin
  2
*D1
 70
    1
 10
0
 20
0
  3
*D1
  1

  0
LINE
  5
6E
100
AcDbEntity
  8
measures
  6
ByBlock
 62
    0
370
   -2
100
AcDbLine
 10
42.84487219623841
 20
0
 11
42.84487219623841
 21
9.999999999999998
  0
SOLID
  5
6F
100
AcDbEntity
  8
measures
  6
ByBlock
 62
    0
370
   -2
100
AcDbTrace
 10
42.84487219623841
 20
0
 30
0
 11
42.42858753846556
 21
2.5
 31
0
 12
43.26115685401125
 22
2.5
 32
0
 13
43.26115685401125
 23
2.5
 33
0
  0
SOLID
  5
70
100
AcDbEntity
  8
measures
  6
ByBlock
 62
    0
370
   -2
100
AcDbTrace
 10
42.84487219623841
 20
9.999999999999998
 30
0
 11
43.26115685401125
 21
7.499999999999998
 31
0
 12
42.42858753846556
 22
7.499999999999998
 32
0
 13
42.42858753846556
 23
7.499999999999998
 33
0
  0
MTEXT
  5
71
100
AcDbEntity
  8
measures
  6
CONTINUOUS
 62
    0
370
   -2
100
AcDbMText
 10
40.96987219623841
 20
16.18055555555555
 30
0
 40
2.5
 41
11.11111111111111
 71
    5
 72
    1
  1
10.0000
  7
standard
210
0
220
0
230
1
 50
90
 73
    2
 44
1
  0
LINE
  5
72
100
AcDbEntity
  8
measures
  6
ByBlock
 62
    0
370
   -2
100
AcDbLine
 10
30.625
 20
0
 11
44.09487219623841
 21
0
  0
LINE
  5
73
100
AcDbEntity
  8
measures
  6
ByBlock
 62
    0
370
   -2
100
AcDbLine
 10
30.625
 20
10
 11
44.09487219623841
 21
9.999999999999998
  0
ENDBLK
  5
5D
330
5B
100
AcDbEntity
  8
0
100
AcDbBlockEnd
  0
BLOCK
  5
5F
330
5E
100
AcDbEntity
  8
0
100
AcDbBlockBegin
  2
*D5
 70
    1
 10
0
 20
0
  3
*D5
  1

  0
LINE
  5
74
100
AcDbEntity
  8
measures
  6
ByBlock
 62
    0
370
   -2
100
AcDbLine
 10
-6.5
 20
1.22469322604054
 11
6.5
 21
1.224693226040539
  0
SOLID
  5
75
100
AcDbEntity
  8
measures
  6
ByBlock
 62
    0
370
   -2
100
AcDbTrace
 10
-1.5
 20
1.224693226040539
 30
0
 11
-4
 21
0.8084085682676988
 31
0
 12
-4
 22
1.64097788381338
 32
0
 13
-4
 23
1.64097788381338
 33
0
  0
SOLID
  5
76
100
AcDbEntity
  8
measures
  6
ByBlock
 62
    0
370
   -2
100
AcDbTrace
 10
1.5
 20
1.224693226040539
 30
0
 11
4
 21
1.64097788381338
 31
0
 12
4
 22
0.8084085682676985
 32
0
 13
4
 23
0.8084085682676985
 33
0
  0
MTEXT
  5
77
100
AcDbEntity
  8
measures
  6
CONTINUOUS
 62
    0
370
   -2
100
AcDbMText
 10
6.986111111111189
 20
3.099693226040539
 30
0
 40
2.5
 41
9.722222222222378
 71
    5
 72
    1
  1
3.0000
  7
standard
210
0
220
0
230
1
 50
0
 73
    2
 44
1
  0
LINE
  5
78
100
AcDbEntity
  8
measures
  6
ByBlock
 62
    0
370
   -2
100
AcDbLine
 10
-1.5
 20
1.875
 11
-1.5
 21
-0.02530677395946079
  0
LINE
  5
79
100
AcDbEntity
  8
measures
  6
ByBlock
 62
    0
370
   -2
100
AcDbLine
 10
1.5
 20
1.875
 11
1.5
 21
-0.02530677395946079
  0
ENDBLK
  5
60
330
5E
100
AcDbEntity
  8
0
100
AcDbBlockEnd
  0
BLOCK
  5
62
330
61
100
AcDbEntity
  8
0
100
AcDbBlockBegin
  2
*D4
 70
    1
 10
0
 20
0
  3
*D4
  1

  0
LINE
  5
7A
100
AcDbEntity
  8
measures
  6
ByBlock
 62
    0
370
   -2
100
AcDbLine
 10
12.67086453095789
 20
17.5
 11
12.67086453095789
 21
4.5
  0
SOLID
  5
7B
100
AcDbEntity
  8
measures
  6
ByBlock
 62
    0
370
   -2
100
AcDbTrace
 10
12.67086453095789
 20
12.5
 30
0
 11
12.25457987318505
 21
15
 31
0
 12
13.08714918873073
 22
15
 32
0
 13
13.08714918873073
 23
15
 33
0
  0
SOLID
  5
7C
100
AcDbEntity
  8
measures
  6
ByBlock
 62
    0
370
   -2
100
AcDbTrace
 10
12.67086453095789
 20
9.5
 30
0
 11
13.08714918873073
 21
7
 31
0
 12
12.25457987318505
 22
7
 32
0
 13
12.25457987318505
 23
7
 33
0
  0
MTEXT
  5
7D
100
AcDbEntity
  8
measures
  6
CONTINUOUS
 62
    0
370
   -2
100
AcDbMText
 10
10.79586453095789
 20
17.98611111111119
 30
0
 40
2.5
 41
9.722222222222378
 71
    5
 72
    1
  1
3.0000
  7
standard
210
0
220
0
230
1
 50
90
 73
    2
 44
1
  0
LINE
  5
7E
100
AcDbEntity
  8
measures
  6
ByBlock
 62
    0
370
   -2
100
AcDbLine
 10
10.125
 20
12.5
 11
13.92086453095789
 21
12.5
  0
LINE
  5
7F
100
AcDbEntity
  8
measures
  6
ByBlock
 62
    0
370
   -2
100
AcDbLine
 10
10.125
 20
9.5
 11
13.92086453095789
 21
9.5
  0
ENDBLK
  5
63
330
61
100
AcDbEntity
  8
0
100
AcDbBlockEnd
  0
ENDSEC
  0
SECTION
  2
ENTITIES
  0
LINE
  5
80
100
AcDbEntity
  8
guides
  6
ByLayer
 62
  256
370
   -1
100
AcDbLine
 10
0
 20
0
 11
8.266365894244634e-15
 21
135
  0
LINE
  5
81
100
AcDbEntity
  8
LandingGear
  6
ByLayer
 62
  256
370
   -1
100
AcDbLine
 10
-29
 20
25
 11
29
 21
25
  0
LINE
  5
82
100
AcDbEntity
  8
LandingGear
  6
ByLayer
 62
  256
370
   -1
100
AcDbLine
 10
29
 20
25
 11
29
 21
0
  0
LINE
  5
83
100
AcDbEntity
  8
LandingGear
  6
ByLayer
 62
  256
370
   -1
100
AcDbLine
 10
29
 20
0
 11
-29
 21
0
  0
LINE
  5
84
100
AcDbEntity
  8
LandingGear
  6
ByLayer
 62
  256
370
   -1
100
AcDbLine
 10
-29
 20
0
 11
-29
 21
25
  0
CIRCLE
  5
85
100
AcDbEntity
  8
LandingGear
  6
ByLayer
 62
  256
370
   -1
100
AcDbCircle
 10
-20
 20
12.5
 40
1.6
  0
CIRCLE
  5
86
100
AcDbEntity
  8
LandingGear
  6
ByLayer
 62
  256
370
   -1
100
AcDbCircle
 10
20
 20
12.5
 40
1.6
  0
DIMENSION
  5
87
100
AcDbEntity
  8
measures
  6
ByLayer
 62
  256
370
   -1
100
AcDbDimension
  2
*D1
 10
42.84487219623841
 20
9.999999999999998
 30
0
 11
40.96987219623841
 21
4.999999999999999
 31
0
 70
   32
 71
    5
  3
Standard
 53
0
210
0
220
0
230
1
100
AcDbAlignedDimension
 13
30
 23
0
 33
0
 14
30
 24
10
 34
0
 50
90
100
AcDbRotatedDimension
  0
CIRCLE
  5
88
100
AcDbEntity
  8
Vertical15mm
  6
ByLayer
 62
  256
370
   -1
100
AcDbCircle
 10
-26
 20
4
 40
2
  0
CIRCLE
  5
89
100
AcDbEntity
  8
Vertical15mm
  6
ByLayer
 62
  256
370
   -1
100
AcDbCircle
 10
26
 20
4
 40
2
  0
LINE
  5
8A
100
AcDbEntity
  8
Vertical15mm
  6
ByLayer
 62
  256
370
   -1
100
AcDbLine
 10
-0.8
 20
0
 11
0.8
 21
0
  0
DIMENSION
  5
8B
100
AcDbEntity
  8
measures
  6
ByLayer
 62
  256
370
   -1
100
AcDbDimension
  2
*D2
 10
-4.723316816584164
 20
2.5
 30
0
 11
-6.598316816584164
 21
7.5
 31
0
 70
   32
 71
    5
  3
Standard
 53
0
210
0
220
0
230
1
100
AcDbAlignedDimension
 13
7.654042494670958e-16
 23
12.5
 33
0
 14
1.530808498934192e-16
 24
2.5
 34
0
 50
90
100
AcDbRotatedDimension
  0
CIRCLE
  5
8C
100
AcDbEntity
  8
Vertical5mm
  6
ByLayer
 62
  256
370
   -1
100
AcDbCircle
 10
1.530808498934192e-15
 20
25
 40
2.5
  0
LINE
  5
8D
100
AcDbEntity
  8
guides
  6
ByLayer
 62
  256
370
   -1
100
AcDbLine
 10
-20
 20
12.5
 11
115
 21
12.5
  0
LINE
  5
8E
100
AcDbEntity
  8
guides
  6
ByLayer
 62
  256
370
   -1
100
AcDbLine
 10
-20
 20
12.5
 11
-19.99999999999999
 21
147.5
  0
LINE
  5
8F
100
AcDbEntity
  8
guides
  6
ByLayer
 62
  256
370
   -1
100
AcDbLine
 10
20
 20
12.5
 11
20.00000000000001
 21
147.5
  0
LINE
  5
90
100
AcDbEntity
  8
guides
  6
ByLayer
 62
  256
370
   -1
100
AcDbLine
 10
-22.75
 20
12.5
 11
-22.74999999999999
 21
147.5
  0
LINE
  5
91
100
AcDbEntity
  8
guides
  6
ByLayer
 62
  256
370
   -1
100
AcDbLine
 10
-17.25
 20
12.5
 11
-17.24999999999999
 21
147.5
  0
LINE
  5
92
100
AcDbEntity
  8
guides
  6
ByLayer
 62
  256
370
   -1
100
AcDbLine
 10
17.25
 20
12.5
 11
17.25000000000001
 21
147.5
  0
LINE
  5
93
100
AcDbEntity
  8
guides
  6
ByLayer
 62
  256
370
   -1
100
AcDbLine
 10
22.75
 20
12.5
 11
22.75000000000001
 21
147.5
  0
LINE
  5
94
100
AcDbEntity
  8
guides
  6
ByLayer
 62
  256
370
   -1
100
AcDbLine
 10
-20
 20
12.5
 11
96.91342951089922
 21
79.99999999999999
  0
LINE
  5
95
100
AcDbEntity
  8
guides
  6
ByLayer
 62
  256
370
   -1
100
AcDbLine
 10
20
 20
12.5
 11
136.9134295108992
 21
79.99999999999999
  0
LINE
  5
96
100
AcDbEntity
  8
guides
  6
ByLayer
 62
  256
370
   -1
100
AcDbLine
 10
-20.00000000000001
 20
12.5
 11
96.91342951089922
 21
-54.99999999999999
  0
LINE
  5
97
100
AcDbEntity
  8
guides
  6
ByLayer
 62
  256
370
   -1
100
AcDbLine
 10
20
 20
12.5
 11
136.9134295108992
 21
-54.99999999999999
  0
LINE
  5
98
100
AcDbEntity
  8
guides
  6
ByLayer
 62
  256
370
   -1
100
AcDbLine
 10
-52.24999999999996
 20
-118.9915238079373
 11
97.74999999999996
 21
140.8160973273943
  0
LINE
  5
99
100
AcDbEntity
  8
guides
  6
ByLayer
 62
  256
370
   -1
100
AcDbLine
 10
-57.74999999999996
 20
-115.8160973273944
 11
92.24999999999996
 21
143.9915238079373
  0
LINE
  5
9A
100
AcDbEntity
  8
guides
  6
ByLayer
 62
  256
370
   -1
100
AcDbLine
 10
-92.24999999999996
 20
-118.9915238079373
 11
57.74999999999996
 21
140.8160973273944
  0
LINE
  5
9B
100
AcDbEntity
  8
guides
  6
ByLayer
 62
  256
370
   -1
100
AcDbLine
 10
-97.74999999999996
 20
-115.8160973273943
 11
52.24999999999996
 21
143.9915238079373
  0
LINE
  5
9C
100
AcDbEntity
  8
guides
  6
ByLayer
 62
  256
370
   -1
100
AcDbLine
 10
52.24999999999997
 20
-118.9915238079373
 11
-97.74999999999997
 21
140.8160973273943
  0
LINE
  5
9D
100
AcDbEntity
  8
guides
  6
ByLayer
 62
  256
370
   -1
100
AcDbLine
 10
57.74999999999997
 20
-115.8160973273943
 11
-92.24999999999997
 21
143.9915238079373
  0
LINE
  5
9E
100
AcDbEntity
  8
guides
  6
ByLayer
 62
  256
370
   -1
100
AcDbLine
 10
92.24999999999997
 20
-118.9915238079373
 11
-57.74999999999997
 21
140.8160973273943
  0
LINE
  5
9F
100
AcDbEntity
  8
guides
  6
ByLayer
 62
  256
370
   -1
100
AcDbLine
 10
97.74999999999997
 20
-115.8160973273943
 11
-52.24999999999997
 21
143.9915238079373
  0
LINE
  5
A0
100
AcDbEntity
  8
guides
  6
ByLayer
 62
  256
370
   -1
100
AcDbLine
 10
-22.75000000000001
 20
14.08771324027148
 11
94.16342951089922
 21
81.58771324027147
  0
LINE
  5
A1
100
AcDbEntity
  8
guides
  6
ByLayer
 62
  256
370
   -1
100
AcDbLine
 10
17.25
 20
14.08771324027149
 11
134.1634295108992
 21
81.58771324027147
  0
LINE
  5
A2
100
AcDbEntity
  8
guides
  6
ByLayer
 62
  256
370
   -1
100
AcDbLine
 10
-17.25
 20
10.91228675972854
 11
99.66342951089922
 21
78.41228675972852
  0
LINE
  5
A3
100
AcDbEntity
  8
guides
  6
ByLayer
 62
  256
370
   -1
100
AcDbLine
 10
22.75000000000001
 20
10.91228675972853
 11
139.6634295108992
 21
78.41228675972852
  0
LINE
  5
A4
100
AcDbEntity
  8
guides
  6
ByLayer
 62
  256
370
   -1
100
AcDbLine
 10
17.25
 20
10.91228675972854
 11
134.1634295108992
 21
-56.58771324027145
  0
LINE
  5
A5
100
AcDbEntity
  8
guides
  6
ByLayer
 62
  256
370
   -1
100
AcDbLine
 10
22.75000000000001
 20
14.08771324027148
 11
139.6634295108992
 21
-53.4122867597285
  0
LINE
  5
A6
100
AcDbEntity
  8
guides
  6
ByLayer
 62
  256
370
   -1
100
AcDbLine
 10
-22.74999999999999
 20
10.91228675972854
 11
94.16342951089922
 21
-56.58771324027145
  0
LINE
  5
A7
100
AcDbEntity
  8
guides
  6
ByLayer
 62
  256
370
   -1
100
AcDbLine
 10
-17.25
 20
14.0877132402715
 11
99.66342951089922
 21
-53.41228675972849
  0
ARC
  5
A8
100
AcDbEntity
  8
Vertical4mm
  6
ByLayer
 62
  256
370
   -1
100
AcDbCircle
 10
-21.75
 20
13.51036297108184
 40
3
100
AcDbArc
 50
120
 51
180.0000000000002
  0
LINE
  5
A9
100
AcDbEntity
  8
Vertical4mm
  6
ByLayer
 62
  256
370
   -1
100
AcDbLine
 10
-24.75
 20
13.51036297108183
 11
-24.74999999999999
 21
11.48963702891816
  0
ARC
  5
AA
100
AcDbEntity
  8
Vertical4mm
  6
ByLayer
 62
  256
370
   -1
100
AcDbCircle
 10
-21.74999999999999
 20
11.48963702891817
 40
3
100
AcDbArc
 50
180.0000000000001
 51
240
  0
LINE
  5
AB
100
AcDbEntity
  8
Vertical4mm
  6
ByLayer
 62
  256
370
   -1
100
AcDbLine
 10
-23.24999999999999
 20
8.891560817564852
 11
-21.5
 21
7.881197846483006
  0
ARC
  5
AC
100
AcDbEntity
  8
Vertical4mm
  6
ByLayer
 62
  256
370
   -1
100
AcDbCircle
 10
-19.99999999999999
 20
10.47927405783632
 40
3
100
AcDbArc
 50
239.9999999999999
 51
300.0000000000001
  0
LINE
  5
AD
100
AcDbEntity
  8
Vertical4mm
  6
ByLayer
 62
  256
370
   -1
100
AcDbLine
 10
-18.49999999999999
 20
7.881197846483009
 11
-16.75
 21
8.89156081756485
  0
ARC
  5
AE
100
AcDbEntity
  8
Vertical4mm
  6
ByLayer
 62
  256
370
   -1
100
AcDbCircle
 10
-18.25
 20
11.48963702891816
 40
3
100
AcDbArc
 50
300
 51
359.9999999999996
  0
LINE
  5
AF
100
AcDbEntity
  8
Vertical4mm
  6
ByLayer
 62
  256
370
   -1
100
AcDbLine
 10
-15.25
 20
11.48963702891814
 11
-15.24999999999999
 21
13.51036297108184
  0
ARC
  5
B0
100
AcDbEntity
  8
Vertical4mm
  6
ByLayer
 62
  256
370
   -1
100
AcDbCircle
 10
-18.24999999999999
 20
13.51036297108186
 40
3
100
AcDbArc
 50
359.9999999999996
 51
60.00000000000023
  0
LINE
  5
B1
100
AcDbEntity
  8
Vertical4mm
  6
ByLayer
 62
  256
370
   -1
100
AcDbLine
 10
-21.5
 20
17.11880215351701
 11
-23.25
 21
16.10843918243516
  0
LINE
  5
B2
100
AcDbEntity
  8
Vertical4mm
  6
ByLayer
 62
  256
370
   -1
100
AcDbLine
 10
-16.75
 20
16.10843918243518
 11
-18.50000000000001
 21
17.11880215351702
  0
ARC
  5
B3
100
AcDbEntity
  8
Vertical4mm
  6
ByLayer
 62
  256
370
   -1
100
AcDbCircle
 10
-20
 20
14.5207259421637
 40
3
100
AcDbArc
 50
60.00000000000026
 51
120
  0
ARC
  5
B4
100
AcDbEntity
  8
Vertical4mm
  6
ByLayer
 62
  256
370
   -1
100
AcDbCircle
 10
18.25
 20
13.51036297108184
 40
3
100
AcDbArc
 50
120
 51
180.0000000000002
  0
LINE
  5
B5
100
AcDbEntity
  8
Vertical4mm
  6
ByLayer
 62
  256
370
   -1
100
AcDbLine
 10
15.25
 20
13.51036297108183
 11
15.25000000000001
 21
11.48963702891816
  0
ARC
  5
B6
100
AcDbEntity
  8
Vertical4mm
  6
ByLayer
 62
  256
370
   -1
100
AcDbCircle
 10
18.25000000000001
 20
11.48963702891817
 40
3
100
AcDbArc
 50
180.0000000000001
 51
240
  0
LINE
  5
B7
100
AcDbEntity
  8
Vertical4mm
  6
ByLayer
 62
  256
370
   -1
100
AcDbLine
 10
16.75000000000001
 20
8.891560817564852
 11
18.5
 21
7.881197846483006
  0
ARC
  5
B8
100
AcDbEntity
  8
Vertical4mm
  6
ByLayer
 62
  256
370
   -1
100
AcDbCircle
 10
20.00000000000001
 20
10.47927405783632
 40
3
100
AcDbArc
 50
239.9999999999999
 51
300.0000000000001
  0
LINE
  5
B9
100
AcDbEntity
  8
Vertical4mm
  6
ByLayer
 62
  256
370
   -1
100
AcDbLine
 10
21.50000000000001
 20
7.881197846483009
 11
23.25
 21
8.89156081756485
  0
ARC
  5
BA
100
AcDbEntity
  8
Vertical4mm
  6
ByLayer
 62
  256
370
   -1
100
AcDbCircle
 10
21.75
 20
11.48963702891816
 40
3
100
AcDbArc
 50
300
 51
359.9999999999996
  0
LINE
  5
BB
100
AcDbEntity
  8
Vertical4mm
  6
ByLayer
 62
  256
370
   -1
100
AcDbLine
 10
24.75
 20
11.48963702891814
 11
24.75000000000001
 21
13.51036297108184
  0
ARC
  5
BC
100
AcDbEntity
  8
Vertical4mm
  6
ByLayer
 62
  256
370
   -1
100
AcDbCircle
 10
21.75000000000001
 20
13.51036297108186
 40
3
100
AcDbArc
 50
359.9999999999996
 51
60.00000000000023
  0
LINE
  5
BD
100
AcDbEntity
  8
Vertical4mm
  6
ByLayer
 62
  256
370
   -1
100
AcDbLine
 10
18.5
 20
17.11880215351701
 11
16.75
 21
16.10843918243516
  0
LINE
  5
BE
100
AcDbEntity
  8
Vertical4mm
  6
ByLayer
 62
  256
370
   -1
100
AcDbLine
 10
23.25
 20
16.10843918243518
 11
21.49999999999999
 21
17.11880215351702
  0
ARC
  5
BF
100
AcDbEntity
  8
Vertical4mm
  6
ByLayer
 62
  256
370
   -1
100
AcDbCircle
 10
20
 20
14.5207259421637
 40
3
100
AcDbArc
 50
60.00000000000026
 51
120
  0
CIRCLE
  5
C0
100
AcDbEntity
  8
GearHoles
  6
ByLayer
 62
  256
370
   -1
100
AcDbCircle
 10
-20
 20
12.5
 40
1.6
  0
CIRCLE
  5
C1
100
AcDbEntity
  8
GearHoles
  6
ByLayer
 62
  256
370
   -1
100
AcDbCircle
 10
20
 20
12.5
 40
1.6
  0
ARC
  5
C2
100
AcDbEntity
  8
Plate
  6
ByLayer
 62
  256
370
   -1
100
AcDbCircle
 10
-13.14589803375031
 20
37
 40
3
100
AcDbArc
 50
90
 51
153.434948822922
  0
LINE
  5
C3
100
AcDbEntity
  8
Plate
  6
ByLayer
 62
  256
370
   -1
100
AcDbLine
 10
-13.14589803375031
 20
40
 11
13.14589803375032
 21
40
  0
ARC
  5
C4
100
AcDbEntity
  8
Plate
  6
ByLayer
 62
  256
370
   -1
100
AcDbCircle
 10
13.14589803375032
 20
36.99999999999999
 40
3
100
AcDbArc
 50
26.56505117707797
 51
90
  0
LINE
  5
C5
100
AcDbEntity
  8
Plate
  6
ByLayer
 62
  256
370
   -1
100
AcDbLine
 10
29.68328157299975
 20
10.63343685400051
 11
15.82917960675007
 21
38.34164078649987
  0
ARC
  5
C6
100
AcDbEntity
  8
Plate
  6
ByLayer
 62
  256
370
   -1
100
AcDbCircle
 10
27
 20
9.291796067500638
 40
3
100
AcDbArc
 50
0
 51
26.56505117707799
  0
LINE
  5
C7
100
AcDbEntity
  8
Plate
  6
ByLayer
 62
  256
370
   -1
100
AcDbLine
 10
-15.82917960675006
 20
38.34164078649987
 11
-29.68328157299975
 21
10.63343685400051
  0
ARC
  5
C8
100
AcDbEntity
  8
Plate
  6
ByLayer
 62
  256
370
   -1
100
AcDbCircle
 10
-27
 20
9.291796067500636
 40
3
100
AcDbArc
 50
153.4349488229221
 51
180
  0
LINE
  5
C9
100
AcDbEntity
  8
Plate
  6
ByLayer
 62
  256
370
   -1
100
AcDbLine
 10
-30
 20
9.291796067500636
 11
-30
 21
1
  0
ARC
  5
CA
100
AcDbEntity
  8
Plate
  6
ByLayer
 62
  256
370
   -1
100
AcDbCircle
 10
-29
 20
1
 40
1
100
AcDbArc
 50
180
 51
270.0000000000002
  0
LINE
  5
CB
100
AcDbEntity
  8
Plate
  6
ByLayer
 62
  256
370
   -1
100
AcDbLine
 10
29
 20
0
 11
-29
 21
0
  0
LINE
  5
CC
100
AcDbEntity
  8
Plate
  6
ByLayer
 62
  256
370
   -1
100
AcDbLine
 10
30
 20
0.9999999999999999
 11
30
 21
9.291796067500638
  0
ARC
  5
CD
100
AcDbEntity
  8
Plate
  6
ByLayer
 62
  256
370
   -1
100
AcDbCircle
 10
29
 20
1
 40
1
100
AcDbArc
 50
270
 51
0
  0
LINE
  5
CE
100
AcDbEntity
  8
guides
  6
ByLayer
 62
  256
370
   -1
100
AcDbLine
 10
9.1
 20
11
 11
-9.100000000000001
 21
11
  0
LINE
  5
CF
100
AcDbEntity
  8
guides
  6
ByLayer
 62
  256
370
   -1
100
AcDbLine
 10
-0.75
 20
9.184850993605148e-17
 11
-0.7499999999999918
 21
135
  0
LINE
  5
D0
100
AcDbEntity
  8
guides
  6
ByLayer
 62
  256
370
   -1
100
AcDbLine
 10
0.75
 20
-1.83697019872103e-16
 11
0.7500000000000082
 21
135
  0
LINE
  5
D1
100
AcDbEntity
  8
guides
  6
ByLayer
 62
  256
370
   -1
100
AcDbLine
 10
-9.499999999999998
 20
12.09999981665095
 11
-9.499999999999989
 21
147.0999998166509
  0
LINE
  5
D2
100
AcDbEntity
  8
guides
  6
ByLayer
 62
  256
370
   -1
100
AcDbLine
 10
9.5
 20
12.09999966013269
 11
9.500000000000009
 21
147.0999996601327
  0
LINE
  5
D3
100
AcDbEntity
  8
guides
  6
ByLayer
 62
  256
370
   -1
100
AcDbLine
 10
1.530808498934192e-16
 20
2.5
 11
135
 21
2.5
  0
DIMENSION
  5
D4
100
AcDbEntity
  8
measures
  6
ByLayer
 62
  256
370
   -1
100
AcDbDimension
  2
*D3
 10
-24
 20
4
 30
0
 11
-26
 21
5.875
 31
0
 70
   35
 71
    5
  3
Standard
 53
0
210
0
220
0
230
1
100
AcDbDiametricDimension
 15
-28
 25
4
 35
0
 40
0
  0
LINE
  5
D5
100
AcDbEntity
  8
guides
  6
ByLayer
 62
  256
370
   -1
100
AcDbLine
 10
8.999999999999998
 20
9.5
 11
1.250000000000001
 21
9.5
  0
LINE
  5
D6
100
AcDbEntity
  8
guides
  6
ByLayer
 62
  256
370
   -1
100
AcDbLine
 10
-1.5
 20
1.83697019872103e-16
 11
-1.499999999999992
 21
135
  0
LINE
  5
D7
100
AcDbEntity
  8
guides
  6
ByLayer
 62
  256
370
   -1
100
AcDbLine
 10
1.5
 20
-3.673940397442059e-16
 11
1.500000000000008
 21
135
  0
DIMENSION
  5
D8
100
AcDbEntity
  8
measures
  6
ByLayer
 62
  256
370
   -1
100
AcDbDimension
  2
*D4
 10
12.67086453095789
 20
9.5
 30
0
 11
10.79586453095789
 21
11
 31
0
 70
   32
 71
    5
  3
Standard
 53
0
210
0
220
0
230
1
100
AcDbAlignedDimension
 13
9.499999999999998
 23
12.5
 33
0
 14
9.499999999999998
 24
9.5
 34
0
 50
90
100
AcDbRotatedDimension
  0
DIMENSION
  5
D9
100
AcDbEntity
  8
measures
  6
ByLayer
 62
  256
370
   -1
100
AcDbDimension
  2
*D5
 10
1.5
 20
1.224693226040539
 30
0
 11
1.148106374200644e-16
 21
3.099693226040539
 31
0
 70
   32
 71
    5
  3
Standard
 53
0
210
0
220
0
230
1
100
AcDbAlignedDimension
 13
-1.5
 23
2.5
 33
0
 14
1.5
 24
2.5
 34
0
100
AcDbRotatedDimension
  0
ARC
  5
DA
100
AcDbEntity
  8
Vertical15mm
  6
ByLayer
 62
  256
370
   -1
100
AcDbCircle
 10
-9
 20
12
 40
0.5
100
AcDbArc
 50
90
 51
180
  0
LINE
  5
DB
100
AcDbEntity
  8
Vertical15mm
  6
ByLayer
 62
  256
370
   -1
100
AcDbLine
 10
-9.5
 20
10
 11
-9.5
 21
12
  0
ARC
  5
DC
100
AcDbEntity
  8
Vertical15mm
  6
ByLayer
 62
  256
370
   -1
100
AcDbCircle
 10
-9
 20
10
 40
0.5
100
AcDbArc
 50
180
 51
270
  0
LINE
  5
DD
100
AcDbEntity
  8
Vertical15mm
  6
ByLayer
 62
  256
370
   -1
100
AcDbLine
 10
-1.999999999999999
 20
9.5
 11
-9
 21
9.5
  0
ARC
  5
DE
100
AcDbEntity
  8
Vertical15mm
  6
ByLayer
 62
  256
370
   -1
100
AcDbCircle
 10
-1.999999999999999
 20
9
 40
0.5
100
AcDbArc
 50
0
 51
90
  0
LINE
  5
DF
100
AcDbEntity
  8
Vertical15mm
  6
ByLayer
 62
  256
370
   -1
100
AcDbLine
 10
-1.5
 20
3
 11
-1.499999999999999
 21
9
  0
ARC
  5
E0
100
AcDbEntity
  8
Vertical15mm
  6
ByLayer
 62
  256
370
   -1
100
AcDbCircle
 10
-0.9999999999999998
 20
3
 40
0.5
100
AcDbArc
 50
180
 51
270
  0
LINE
  5
E1
100
AcDbEntity
  8
Vertical15mm
  6
ByLayer
 62
  256
370
   -1
100
AcDbLine
 10
1
 20
2.5
 11
-0.9999999999999998
 21
2.5
  0
ARC
  5
E2
100
AcDbEntity
  8
Vertical15mm
  6
ByLayer
 62
  256
370
   -1
100
AcDbCircle
 10
1
 20
3
 40
0.5
100
AcDbArc
 50
270
 51
0
  0
LINE
  5
E3
100
AcDbEntity
  8
Vertical15mm
  6
ByLayer
 62
  256
370
   -1
100
AcDbLine
 10
1.500000000000001
 20
9
 11
1.5
 21
3
  0
ARC
  5
E4
100
AcDbEntity
  8
Vertical15mm
  6
ByLayer
 62
  256
370
   -1
100
AcDbCircle
 10
2.000000000000001
 20
9
 40
0.5
100
AcDbArc
 50
90
 51
180
  0
LINE
  5
E5
100
AcDbEntity
  8
Vertical15mm
  6
ByLayer
 62
  256
370
   -1
100
AcDbLine
 10
8.999999999999998
 20
9.5
 11
2.000000000000001
 21
9.5
  0
ARC
  5
E6
100
AcDbEntity
  8
Vertical15mm
  6
ByLayer
 62
  256
370
   -1
100
AcDbCircle
 10
8.999999999999998
 20
10
 40
0.5
100
AcDbArc
 50
270
 51
0
  0
LINE
  5
E7
100
AcDbEntity
  8
Vertical15mm
  6
ByLayer
 62
  256
370
   -1
100
AcDbLine
 10
9.499999999999998
 20
12
 11
9.499999999999998
 21
10
  0
LINE
  5
E8
100
AcDbEntity
  8
Vertical15mm
  6
ByLayer
 62
  256
370
   -1
100
AcDbLine
 10
-9
 20
12.5
 11
9
 21
12.5
  0
ARC
  5
E9
100
AcDbEntity
  8
Vertical15mm
  6
ByLayer
 62
  256
370
   -1
100
AcDbCircle
 10
8.999999999999998
 20
12
 40
0.5
100
AcDbArc
 50
0
 51
89.9999999999998
  0
ARC
  5
EA
100
AcDbEntity
  8
Vertical4mm
  6
ByLayer
 62
  256
370
   -1
100
AcDbCircle
 10
-22.9
 20
14.17431578064991
 40
0
100
AcDbArc
 50
0
 51
90
  0
LINE
  5
EB
100
AcDbEntity
  8
Vertical4mm
  6
ByLayer
 62
  256
370
   -1
100
AcDbLine
 10
-22.9
 20
14.17431578064991
 11
-22.89999999999999
 21
10.82568421935009
  0
ARC
  5
EC
100
AcDbEntity
  8
Vertical4mm
  6
ByLayer
 62
  256
370
   -1
100
AcDbCircle
 10
-22.89999999999999
 20
10.82568421935009
 40
0
100
AcDbArc
 50
0
 51
0
  0
LINE
  5
ED
100
AcDbEntity
  8
Vertical4mm
  6
ByLayer
 62
  256
370
   -1
100
AcDbLine
 10
-22.89999999999999
 20
10.82568421935009
 11
-20
 21
9.151368438700183
  0
ARC
  5
EE
100
AcDbEntity
  8
Vertical4mm
  6
ByLayer
 62
  256
370
   -1
100
AcDbCircle
 10
-20
 20
9.151368438700183
 40
0
100
AcDbArc
 50
0
 51
0
  0
LINE
  5
EF
100
AcDbEntity
  8
Vertical4mm
  6
ByLayer
 62
  256
370
   -1
100
AcDbLine
 10
-20
 20
9.151368438700183
 11
-17.10000000000001
 21
10.82568421935009
  0
ARC
  5
F0
100
AcDbEntity
  8
Vertical4mm
  6
ByLayer
 62
  256
370
   -1
100
AcDbCircle
 10
-17.10000000000001
 20
10.82568421935009
 40
0
100
AcDbArc
 50
0
 51
0
  0
LINE
  5
F1
100
AcDbEntity
  8
Vertical4mm
  6
ByLayer
 62
  256
370
   -1
100
AcDbLine
 10
-17.10000000000001
 20
10.82568421935009
 11
-17.09999999999999
 21
14.17431578064993
  0
ARC
  5
F2
100
AcDbEntity
  8
Vertical4mm
  6
ByLayer
 62
  256
370
   -1
100
AcDbCircle
 10
-17.09999999999999
 20
14.17431578064993
 40
0
100
AcDbArc
 50
0
 51
0
  0
LINE
  5
F3
100
AcDbEntity
  8
Vertical4mm
  6
ByLayer
 62
  256
370
   -1
100
AcDbLine
 10
-17.09999999999999
 20
14.17431578064993
 11
-20
 21
15.84863156129983
  0
LINE
  5
F4
100
AcDbEntity
  8
Vertical4mm
  6
ByLayer
 62
  256
370
   -1
100
AcDbLine
 10
-20
 20
15.84863156129983
 11
-22.9
 21
14.17431578064992
  0
ARC
  5
F5
100
AcDbEntity
  8
Vertical4mm
  6
ByLayer
 62
  256
370
   -1
100
AcDbCircle
 10
-20
 20
15.84863156129983
 40
0
100
AcDbArc
 50
0
 51
90
  0
ARC
  5
F6
100
AcDbEntity
  8
Vertical4mm
  6
ByLayer
 62
  256
370
   -1
100
AcDbCircle
 10
17.1
 20
10.8256842193501
 40
0
100
AcDbArc
 50
0
 51
0
  0
LINE
  5
F7
100
AcDbEntity
  8
Vertical4mm
  6
ByLayer
 62
  256
370
   -1
100
AcDbLine
 10
17.1
 20
14.17431578064992
 11
17.1
 21
10.8256842193501
  0
ARC
  5
F8
100
AcDbEntity
  8
Vertical4mm
  6
ByLayer
 62
  256
370
   -1
100
AcDbCircle
 10
17.1
 20
14.17431578064992
 40
0
100
AcDbArc
 50
270
 51
0
  0
LINE
  5
F9
100
AcDbEntity
  8
Vertical4mm
  6
ByLayer
 62
  256
370
   -1
100
AcDbLine
 10
20
 20
15.84863156129983
 11
17.1
 21
14.17431578064992
  0
ARC
  5
FA
100
AcDbEntity
  8
Vertical4mm
  6
ByLayer
 62
  256
370
   -1
100
AcDbCircle
 10
20
 20
15.84863156129983
 40
0
100
AcDbArc
 50
0
 51
90
  0
LINE
  5
FB
100
AcDbEntity
  8
Vertical4mm
  6
ByLayer
 62
  256
370
   -1
100
AcDbLine
 10
22.90000000000001
 20
14.17431578064992
 11
20
 21
15.84863156129984
  0
ARC
  5
FC
100
AcDbEntity
  8
Vertical4mm
  6
ByLayer
 62
  256
370
   -1
100
AcDbCircle
 10
22.90000000000001
 20
14.17431578064991
 40
0
100
AcDbArc
 50
0
 51
90
  0
LINE
  5
FD
100
AcDbEntity
  8
Vertical4mm
  6
ByLayer
 62
  256
370
   -1
100
AcDbLine
 10
22.9
 20
10.82568421935008
 11
22.90000000000001
 21
14.17431578064991
  0
ARC
  5
FE
100
AcDbEntity
  8
Vertical4mm
  6
ByLayer
 62
  256
370
   -1
100
AcDbCircle
 10
22.9
 20
10.82568421935008
 40
0
100
AcDbArc
 50
270
 51
0
  0
LINE
  5
FF
100
AcDbEntity
  8
Vertical4mm
  6
ByLayer
 62
  256
370
   -1
100
AcDbLine
 10
20.00000000000002
 20
9.151368438700171
 11
22.9
 21
10.82568421935008
  0
LINE
  5
100
100
AcDbEntity
  8
Vertical4mm
  6
ByLayer
 62
  256
370
   -1
100
AcDbLine
 10
17.1
 20
10.8256842193501
 11
20.00000000000002
 21
9.151368438700171
  0
ARC
  5
101
100
AcDbEntity
  8
Vertical4mm
  6
ByLayer
 62
  256
370
   -1
100
AcDbCircle
 10
20.00000000000002
 20
9.151368438700171
 40
0
100
AcDbArc
 50
0
 51
0
  0
ENDSEC
  0
SECTION
  2
OBJECTS
  0
DICTIONARY
  5
C
330
0
100
AcDbDictionary
281
    1
  3
ACAD_GROUP
350
D
  0
DICTIONARY
  5
D
330
C
100
AcDbDictionary
281
    1
  0
ENDSEC
  0
EOF
